{
  "hue": {
    "host": "192.168.32.27",
    "username": "lM5Vp-e6nRyeOJz0VQYFnLzi2ZDAB2k1jkboEvKb",
    "clientKey": "37CA82104AA19E577EA9399314994C1E"
  },
  "entertainment": {
    "roomId": 200
  },
  "artnet": {
    "bindIp": "192.168.32.26"
  },
  "lights": [
    {
      "dmxStart": 1,
      "lightId": "15",
      "channelMode": "8bit-dimmable"
    },
    {
      "dmxStart": 5,
      "lightId": "11",
      "channelMode": "8bit-dimmable"
    },
    {
      "dmxStart": 9,
      "lightId": "13",
      "channelMode": "8bit-dimmable"
    },
    {
      "dmxStart": 13,
      "lightId": "10",
      "channelMode": "8bit-dimmable"
    },
    {
      "dmxStart": 17,
      "lightId": "12",
      "channelMode": "8bit-dimmable"
    },
    {
      "dmxStart": 21,
      "lightId": "14",
      "channelMode": "8bit-dimmable"
    }
  ]
}